MultiNicheNet: differential cell-cell communication analysis from single-cell transcriptomics data with complex multi-sample, multi-condition designs
…
LR-target links in the systems plot

graph_plot$source_df_lt 

# A tibble: 31 × 6
   sender              receiver          direction_regulation group type  weight
   <chr>               <chr>             <fct>                <chr> <chr>  <dbl>
 1 Fibroblast_TIMP1    Fibroblast_TIMP1  up                   OnE   Liga…      1
 2 Fibroblast_FN1      Fibroblast_SERPI… up                   OnE   Liga…      1
 3 Fibroblast_FN1      Fibroblast_VEGFA  up                   OnE   Liga…      1
 4 Fibroblast_TIMP3    Fibroblast_VEGFA  up                   OnE   Liga…      1
 5 Fibroblast_SERPINE1 Fibroblast_SERPI… up                   OnE   Liga…      1
 6 Fibroblast_SERPINE1 Fibroblast_VEGFA  up                   OnE   Liga…      1
 7 Fibroblast_CCN1     Fibroblast_SERPI… up                   OnE   Liga…      1
 8 Fibroblast_CCN1     Fibroblast_VEGFA  up                   OnE   Liga…      1
 9 macrophages_ITGB2   Fibroblast_TIMP1  up                   OnE   Liga…      1
10 Fibroblast_ANGPTL4  Fibroblast_SERPI… up                   OnE   Liga…      1
# ℹ 21 more rows
…
The graph object

graph_plot$graph

# A tbl_graph: 27 nodes and 31 edges
#
# A directed multigraph with 4 components
#
# A tibble: 27 × 4
  name              celltype    gene  type_gene      
  <chr>             <chr>       <chr> <chr>          
1 macrophages_ITGB2 macrophages ITGB2 ligand/receptor
2 Fibroblast_ICAM1  Fibroblast  ICAM1 ligand/receptor
3 Fibroblast_VCAM1  Fibroblast  VCAM1 ligand/receptor
4 Fibroblast_TIMP1  Fibroblast  TIMP1 ligand         
5 Fibroblast_FN1    Fibroblast  FN1   ligand         
6 Fibroblast_TIMP3  Fibroblast  TIMP3 ligand         
# ℹ 21 more rows
#
# A tibble: 31 × 6
   from    to direction_regulation group type          weight
  <int> <int> <chr>                <chr> <chr>          <dbl>
1     4     4 up                   OnE   Ligand-Target      1
2     5     7 up                   OnE   Ligand-Target      1
3     5    24 up                   OnE   Ligand-Target      1
# ℹ 28 more rows
…
